{
   "CE": [
      {
         "GroupTypeId": "101423",
         "Sponsored": null,
         "AnnualRate": 16065,
         "SemiAnnualRate": 8155,
         "QuarterlyRate": 4140,
         "MonthlyRate": 1380,
         "EnrollmentFee": 2250,
         "FirstMonth": 3630
      }
   ],
   "Key": [
      {
         "GroupTypeId": "101424",
         "Sponsored": "0",
         "AnnualRate": 8495,
         "SemiAnnualRate": 4315,
         "QuarterlyRate": 2190,
         "MonthlyRate": 730,
         "EnrollmentFee": 800,
         "FirstMonth": 1530
      },
      {
         "GroupTypeId": "101424",
         "Sponsored": "1",
         "AnnualRate": 7565,
         "SemiAnnualRate": 3840,
         "QuarterlyRate": 1950,
         "MonthlyRate": 650,
         "EnrollmentFee": 0,
         "FirstMonth": 650
      }
   ],
   "SB": [
      {
         "GroupTypeId": "101439",
         "Sponsored": null,
         "AnnualRate": 12690,
         "SemiAnnualRate": 6445,
         "QuarterlyRate": 3270,
         "MonthlyRate": 1090,
         "EnrollmentFee": 1600,
         "FirstMonth": 2690
      }
   ],
   "Sabbatical": [
      {
         "GroupTypeId": "102887",
         "Sponsored": null,
         "AnnualRate": 3025,
         "SemiAnnualRate": null,
         "QuarterlyRate": null,
         "MonthlyRate": 260,
         "EnrollmentFee": 0,
         "FirstMonth": 260
      }
   ],
   "TA": [
      {
         "GroupTypeId": "102290",
         "Sponsored": null,
         "AnnualRate": 3840,
         "SemiAnnualRate": 1950,
         "QuarterlyRate": 990,
         "MonthlyRate": 330,
         "EnrollmentFee": 300,
         "FirstMonth": 630
      }
   ]
}