﻿{
  "$schema": "http://json-schema.org/draft-04/schema#",
  "type": "object",
  "properties": {
    "Amount": {
      "type": "string"
    },
    "FirstName": {
      "type": "string"
    },
    "LastName": {
      "type": "string"
    },
    "Address1": {
      "type": "string"
    },
    "Address2": {
      "type": "string"
    },
    "City": {
      "type": "string"
    },
    "State": {
      "type": "string"
    },
    "Zip": {
      "type": "string"
    },
    "CountryCode": {
      "type": "string"
    },
    "Email": {
      "type": "string"
    },
    "MobilePhone": {
      "type": "string"
    },
    "WorkPhone": {
      "type": "string"
    },
    "PhoneExtension": {
      "type": "string"
    },
    "CustomerCode": {
      "type": "string"
    },
    "PaymentMethod": {
      "enum": [ "Electronic fund transfer" ]
    }
  },
  "required": [
    "Amount",
    "FirstName",
    "LastName",
    "Address1",
    "Address2",
    "City",
    "State",
    "Zip",
    "CountryCode",
    "Email",
    "CustomerCode",
    "PaymentMethod",
    "FinancialInstitution",
    "RoutingNumber",
    "AccountNumber"
  ]
}